\relax 
\citation{onofri}
\select@language{english}
\@writefile{toc}{\select@language{english}}
\@writefile{lof}{\select@language{english}}
\@writefile{lot}{\select@language{english}}
\@writefile{toc}{\contentsline {section}{\numberline {1}Introduction}{1}}
\@writefile{toc}{\contentsline {section}{\numberline {2}Equations of the model}{1}}
\@writefile{toc}{\contentsline {subsection}{\numberline {2.1}Linear case}{1}}
\citation{fpu}
\@writefile{toc}{\contentsline {subsection}{\numberline {2.2}Non-linear case}{2}}
\@writefile{toc}{\contentsline {section}{\numberline {3}Numerical methods}{2}}
\@writefile{lof}{\contentsline {figure}{\numberline {1}{\ignorespaces Initial condition}}{3}}
\@writefile{toc}{\contentsline {section}{\numberline {4}Results}{3}}
\@writefile{lof}{\contentsline {figure}{\numberline {2}{\ignorespaces Linear case: energy for each mode (in the legend 'i' is the 'i+1' mode)}}{3}}
\@writefile{lof}{\contentsline {figure}{\numberline {3}{\ignorespaces Conservation of energy in the linear case}}{4}}
\@writefile{lof}{\contentsline {figure}{\numberline {4}{\ignorespaces Testing the autoconvergence of the algorithm for the linear case}}{4}}
\@writefile{lof}{\contentsline {figure}{\numberline {5}{\ignorespaces FPU experiment with $\alpha =1$. We can see that the energy is passing through the modes but we can't see yet that there's no thermalization.(in the legend 'i' is the 'i+1' mode)}}{5}}
\bibcite{onofri}{1}
\bibcite{fpu}{2}
\@writefile{lof}{\contentsline {figure}{\numberline {6}{\ignorespaces FPU experiment with $\alpha =0.5$. We can see that the energy is going through the modes but then return to the first mode, showing that there's no ergodic behavior, or no thermalization. (in the legend 'i' is the 'i+1' mode)}}{6}}
\@writefile{toc}{\contentsline {section}{\numberline {5}Conclusion}{6}}
